(export (version D)
  (design
    (source /home/icosmin/development/Arduino/RadioSender/schematics/RadioSender.sch)
    (date "Mon 29 Jan 2018 11:48:02 PM CET")
    (tool "Eeschema 4.0.7-e2-6376~58~ubuntu16.04.1")
    (sheet (number 1) (name /) (tstamps /)
      (title_block
        (title "Arduino RFM69 Board")
        (company "IOT llama")
        (rev 1.0.0)
        (date 2018-01-28)
        (source RadioSender.sch)
        (comment (number 1) (value ""))
        (comment (number 2) (value ""))
        (comment (number 3) (value ""))
        (comment (number 4) (value "")))))
  (components
    (comp (ref IC1)
      (value "ArduinoProMini 16Mhz")
      (footprint mysensors_arduino:pro_mini_cosmin)
      (libsource (lib mysensors_arduino) (part ArduinoProMini))
      (sheetpath (names /) (tstamps /))
      (tstamp 5A6E2439))
    (comp (ref U2)
      (value oled_091)
      (footprint Pin_Headers:Pin_Header_Angled_1x04_Pitch2.54mm)
      (libsource (lib SSD1306_OLED-0.91-128x32) (part oled_091))
      (sheetpath (names /) (tstamps /))
      (tstamp 5A6E2BA1))
    (comp (ref SW1)
      (value SW_Push)
      (footprint Buttons_Switches_THT:SW_PUSH-12mm)
      (libsource (lib switches) (part SW_Push))
      (sheetpath (names /) (tstamps /))
      (tstamp 5A6E2C44))
    (comp (ref R1)
      (value 10k)
      (footprint Resistors_THT:R_Axial_DIN0309_L9.0mm_D3.2mm_P12.70mm_Horizontal)
      (libsource (lib device) (part R))
      (sheetpath (names /) (tstamps /))
      (tstamp 5A6E2CD5))
    (comp (ref U3)
      (value RFM69HW)
      (footprint mysensors_radios:RFM69HW_SMD_Handsoldering)
      (libsource (lib mysensors_radios) (part RFM69HW))
      (sheetpath (names /) (tstamps /))
      (tstamp 5A6E2E37))
    (comp (ref U1)
      (value DHT11)
      (footprint Pin_Headers:Pin_Header_Straight_1x04_Pitch2.54mm)
      (libsource (lib sensors) (part DHT11))
      (sheetpath (names /) (tstamps /))
      (tstamp 5A6E2EEB))
    (comp (ref AE1)
      (value Antenna)
      (footprint Wire_Pads:SolderWirePad_single_0-8mmDrill)
      (libsource (lib device) (part Antenna))
      (sheetpath (names /) (tstamps /))
      (tstamp 5A6E6149))
    (comp (ref R2)
      (value 10k)
      (footprint Resistors_THT:R_Axial_DIN0309_L9.0mm_D3.2mm_P12.70mm_Horizontal)
      (libsource (lib device) (part R))
      (sheetpath (names /) (tstamps /))
      (tstamp 5A6E7259))
    (comp (ref C1)
      (value 1u)
      (footprint Capacitors_THT:CP_Radial_D5.0mm_P2.00mm)
      (libsource (lib device) (part CP))
      (sheetpath (names /) (tstamps /))
      (tstamp 5A6EE3E2))
    (comp (ref J6)
      (value Conn_01x02)
      (footprint Pin_Headers:Pin_Header_Straight_1x02_Pitch2.54mm)
      (libsource (lib conn) (part Conn_01x02))
      (sheetpath (names /) (tstamps /))
      (tstamp 5A6F947A)))
  (libparts
    (libpart (lib device) (part Antenna)
      (description "Antenna symbol")
      (fields
        (field (name Reference) AE)
        (field (name Value) Antenna))
      (pins
        (pin (num 1) (name A) (type input))))
    (libpart (lib mysensors_arduino) (part ArduinoProMini)
      (description "Arduino Pro Mini China variant, ATMEGA328, 16k Flash, 1kB SRAM, 512B EEPROM")
      (docs http://www.arduino.cc/en/uploads/Main/Arduino-Pro-Mini-schematic.pdf)
      (footprints
        (fp pro_mini*))
      (fields
        (field (name Reference) IC)
        (field (name Value) ArduinoProMini)
        (field (name Footprint) mysensors_arduino:pro_mini_china))
      (pins
        (pin (num 1) (name "(PCINT17/TXD)PD1/1") (type BiDi))
        (pin (num 2) (name "(PCINT16/RXD)PD0/0") (type BiDi))
        (pin (num 3) (name "(PCINT14/~RESET~)PC6") (type BiDi))
        (pin (num 4) (name GND) (type power_in))
        (pin (num 5) (name "(PCINT18/INT0)PD2/2") (type BiDi))
        (pin (num 6) (name "(PCINT19/OC2B/INT1/PWM)PD3/3") (type BiDi))
        (pin (num 7) (name "(PCINT20/XCK/T0)PD4/4") (type BiDi))
        (pin (num 8) (name "(PCINT21/OC0B/T1/PWM)PD5/5") (type BiDi))
        (pin (num 9) (name "(PCINT22/OC0A/AIN0/PWM)PD6/6") (type BiDi))
        (pin (num 10) (name "(PCINT23/AIN1)PD7/7") (type BiDi))
        (pin (num 11) (name "(PCINT0/CLKO/ICP1)PB0/8") (type BiDi))
        (pin (num 12) (name "(PCINT1/OC1A/PWM)PB1/9") (type BiDi))
        (pin (num 13) (name "(PCINT2/OC1B/~SS~/PWM)PB2/10") (type BiDi))
        (pin (num 14) (name "(PCINT3/OC2A/MOSI/PWM)PB3/11") (type BiDi))
        (pin (num 15) (name "(PCINT4/MISO)PB4/12") (type BiDi))
        (pin (num 16) (name "(PCINT5/SCK)PB5/13") (type BiDi))
        (pin (num 17) (name "(PCINT8/ADC0)PC0/14/A0") (type BiDi))
        (pin (num 18) (name "(PCINT9/ADC1)PC1/15/A1") (type BiDi))
        (pin (num 19) (name "(PCINT10/ADC2)PC2/16/A2") (type BiDi))
        (pin (num 20) (name "(PCINT11/ADC3)PC3/17/A3") (type BiDi))
        (pin (num 21) (name VCC) (type power_in))
        (pin (num 22) (name "(PCINT14/~RESET~)PC6") (type BiDi))
        (pin (num 23) (name GND) (type power_in))
        (pin (num 24) (name RAW) (type power_in))
        (pin (num 25) (name "(PCINT12/SDA/ADC4)PC4/18/A4") (type BiDi))
        (pin (num 26) (name "(PCINT13/SCL/ADC5)PC5/19/A5") (type BiDi))
        (pin (num 27) (name ADC6/A6) (type input))
        (pin (num 28) (name ADC7/A7) (type input))
        (pin (num 29) (name GND) (type power_in))))
    (libpart (lib device) (part CP)
      (description "Polarised capacitor")
      (footprints
        (fp CP_*))
      (fields
        (field (name Reference) C)
        (field (name Value) CP))
      (pins
        (pin (num 1) (name ~) (type passive))
        (pin (num 2) (name ~) (type passive))))
    (libpart (lib conn) (part Conn_01x02)
      (description "Generic connector, single row, 01x02")
      (docs ~)
      (footprints
        (fp Connector*:*_??x*mm*)
        (fp Connector*:*1x??x*mm*)
        (fp Pin?Header?Straight?1X*)
        (fp Pin?Header?Angled?1X*)
        (fp Socket?Strip?Straight?1X*)
        (fp Socket?Strip?Angled?1X*))
      (fields
        (field (name Reference) J)
        (field (name Value) Conn_01x02))
      (pins
        (pin (num 1) (name Pin_1) (type passive))
        (pin (num 2) (name Pin_2) (type passive))))
    (libpart (lib sensors) (part DHT11)
      (description "- Temperature and humidity module")
      (docs http://akizukidenshi.com/download/ds/aosong/DHT11.pdf)
      (fields
        (field (name Reference) U)
        (field (name Value) DHT11))
      (pins
        (pin (num 1) (name VCC) (type input))
        (pin (num 2) (name IO) (type BiDi))
        (pin (num 4) (name GND) (type power_in))))
    (libpart (lib device) (part R)
      (description Resistor)
      (footprints
        (fp R_*)
        (fp R_*))
      (fields
        (field (name Reference) R)
        (field (name Value) R))
      (pins
        (pin (num 1) (name ~) (type passive))
        (pin (num 2) (name ~) (type passive))))
    (libpart (lib mysensors_radios) (part RFM69HW)
      (description "RFM69HW, 868Mhz +20dBm HopeRF Wireless Transceiver, Vcc=3.3V")
      (docs http://modtronicsaustralia.com/wp-content/uploads/2014/11/RFM69HW-V1.3.pdf)
      (footprints
        (fp RFM69*))
      (fields
        (field (name Reference) U)
        (field (name Value) RFM69HW)
        (field (name Footprint) mysensors_radios:RFM69HW_SMD_ThroughHole_Handsoldering))
      (pins
        (pin (num 1) (name RESET) (type BiDi))
        (pin (num 2) (name DIO0) (type BiDi))
        (pin (num 3) (name DIO1) (type BiDi))
        (pin (num 4) (name DIO2) (type BiDi))
        (pin (num 5) (name DIO3) (type BiDi))
        (pin (num 6) (name DIO4) (type BiDi))
        (pin (num 7) (name DIO5) (type BiDi))
        (pin (num 8) (name 3.3V) (type power_in))
        (pin (num 9) (name GND) (type power_in))
        (pin (num 10) (name ANA) (type passive))
        (pin (num 11) (name GND) (type power_in))
        (pin (num 12) (name SCK) (type input))
        (pin (num 13) (name MISO) (type 3state))
        (pin (num 14) (name MOSI) (type input))
        (pin (num 15) (name NSS) (type input))
        (pin (num 16) (name NC) (type passive))))
    (libpart (lib switches) (part SW_Push)
      (description "Push button switch, generic, two pins")
      (fields
        (field (name Reference) SW)
        (field (name Value) SW_Push))
      (pins
        (pin (num 1) (name 1) (type passive))
        (pin (num 2) (name 2) (type passive))))
    (libpart (lib SSD1306_OLED-0.91-128x32) (part oled_091)
      (fields
        (field (name Reference) U)
        (field (name Value) oled_091))
      (pins
        (pin (num 1) (name GND) (type power_in))
        (pin (num 2) (name VCC) (type input))
        (pin (num 3) (name SCL) (type input))
        (pin (num 4) (name SDA) (type input)))))
  (libraries
    (library (logical mysensors_arduino)
      (uri /home/icosmin/development/Arduino/Kicad_Libraries/mysensors_symbols/mysensors_arduino.lib))
    (library (logical conn)
      (uri /usr/share/kicad/library/conn.lib))
    (library (logical switches)
      (uri /usr/share/kicad/library/switches.lib))
    (library (logical SSD1306_OLED-0.91-128x32)
      (uri /home/icosmin/development/Arduino/Kicad_Libraries/KiCad-SSD1306_OLED-0.91-128x32/SSD1306_OLED-0.91-128x32.lib))
    (library (logical mysensors_radios)
      (uri /home/icosmin/development/Arduino/Kicad_Libraries/mysensors_symbols/mysensors_radios.lib))
    (library (logical sensors)
      (uri /usr/share/kicad/library/sensors.lib))
    (library (logical device)
      (uri /usr/share/kicad/library/device.lib)))
  (nets
    (net (code 1) (name GND)
      (node (ref J6) (pin 1))
      (node (ref U2) (pin 1))
      (node (ref IC1) (pin 29))
      (node (ref C1) (pin 2))
      (node (ref SW1) (pin 2))
      (node (ref IC1) (pin 4))
      (node (ref U3) (pin 11))
      (node (ref U3) (pin 9))
      (node (ref IC1) (pin 23))
      (node (ref U1) (pin 4)))
    (net (code 2) (name /CLOCK)
      (node (ref U3) (pin 12))
      (node (ref IC1) (pin 16)))
    (net (code 3) (name /A4)
      (node (ref U2) (pin 4))
      (node (ref IC1) (pin 25)))
    (net (code 4) (name /A5)
      (node (ref IC1) (pin 26))
      (node (ref U2) (pin 3)))
    (net (code 5) (name /D12)
      (node (ref IC1) (pin 15))
      (node (ref U3) (pin 13)))
    (net (code 6) (name /D11)
      (node (ref U3) (pin 14))
      (node (ref IC1) (pin 14)))
    (net (code 7) (name /D10)
      (node (ref IC1) (pin 13))
      (node (ref U3) (pin 15)))
    (net (code 8) (name /D8)
      (node (ref IC1) (pin 11))
      (node (ref R2) (pin 1))
      (node (ref U1) (pin 2)))
    (net (code 9) (name "Net-(IC1-Pad9)")
      (node (ref IC1) (pin 9)))
    (net (code 10) (name "Net-(IC1-Pad2)")
      (node (ref IC1) (pin 2)))
    (net (code 11) (name "Net-(IC1-Pad1)")
      (node (ref IC1) (pin 1)))
    (net (code 12) (name "Net-(IC1-Pad7)")
      (node (ref IC1) (pin 7)))
    (net (code 13) (name "Net-(IC1-Pad8)")
      (node (ref IC1) (pin 8)))
    (net (code 14) (name "Net-(IC1-Pad12)")
      (node (ref IC1) (pin 12)))
    (net (code 15) (name "Net-(IC1-Pad19)")
      (node (ref IC1) (pin 19)))
    (net (code 16) (name "Net-(IC1-Pad18)")
      (node (ref IC1) (pin 18)))
    (net (code 17) (name "Net-(IC1-Pad17)")
      (node (ref IC1) (pin 17)))
    (net (code 18) (name "Net-(IC1-Pad27)")
      (node (ref IC1) (pin 27)))
    (net (code 19) (name "Net-(IC1-Pad28)")
      (node (ref IC1) (pin 28)))
    (net (code 20) (name "Net-(IC1-Pad20)")
      (node (ref IC1) (pin 20)))
    (net (code 21) (name /D7)
      (node (ref IC1) (pin 10))
      (node (ref R2) (pin 2))
      (node (ref U1) (pin 1)))
    (net (code 22) (name "Net-(AE1-Pad1)")
      (node (ref U3) (pin 10))
      (node (ref AE1) (pin 1)))
    (net (code 24) (name VCC)
      (node (ref U3) (pin 8))
      (node (ref IC1) (pin 21))
      (node (ref U2) (pin 2))
      (node (ref J6) (pin 2))
      (node (ref R1) (pin 1)))
    (net (code 25) (name "Net-(U3-Pad1)")
      (node (ref U3) (pin 1)))
    (net (code 26) (name "Net-(U3-Pad3)")
      (node (ref U3) (pin 3)))
    (net (code 27) (name "Net-(U3-Pad4)")
      (node (ref U3) (pin 4)))
    (net (code 28) (name "Net-(U3-Pad5)")
      (node (ref U3) (pin 5)))
    (net (code 29) (name "Net-(IC1-Pad3)")
      (node (ref IC1) (pin 3)))
    (net (code 30) (name "Net-(U3-Pad6)")
      (node (ref U3) (pin 6)))
    (net (code 31) (name "Net-(IC1-Pad22)")
      (node (ref IC1) (pin 22)))
    (net (code 32) (name "Net-(IC1-Pad24)")
      (node (ref IC1) (pin 24)))
    (net (code 33) (name /D2)
      (node (ref IC1) (pin 5))
      (node (ref U3) (pin 2)))
    (net (code 34) (name /D3)
      (node (ref IC1) (pin 6))
      (node (ref R1) (pin 2))
      (node (ref SW1) (pin 1))
      (node (ref C1) (pin 1)))
    (net (code 35) (name "Net-(U3-Pad7)")
      (node (ref U3) (pin 7)))
    (net (code 36) (name "Net-(U3-Pad16)")
      (node (ref U3) (pin 16)))))